Corpus Studies in Music - Week 7: Text, TF-IDF, etc.
…
calculate_sentiment(taylor) 

Joining with `by = join_by(word)`

Warning in left_join(., get_sentiments("nrc"), multiple = "all"): Detected an unexpected many-to-many relationship between `x` and `y`.
ℹ Row 14 of `x` matches multiple rows in `y`.
ℹ Row 7687 of `y` matches multiple rows in `x`.
ℹ If a many-to-many relationship is expected, set `relationship =
  "many-to-many"` to silence this warning.

# A tibble: 94 × 12
# Groups:   track_title [94]
   track_title  anger anticipation disgust  fear   joy negative positive sadness
   <chr>        <int>        <int>   <int> <int> <int>    <int>    <int>   <int>
 1 ...Ready fo…     3           10       4     9     8        9        9       4
 2 22               9           13       9     7    11       12       14      10
 3 A Perfectly…     4            8       4     4    12        5       14       5
 4 A Place In …     1            4       1     1     3        4        4       2
 5 All Too Well     5            6       3     2     4       11        7       6
 6 All You Had…    NA           NA       1    NA     2        5        2       4
 7 Back To Dec…     1           17      NA     9    16        9       22       7
 8 Bad Blood       22            3      20    22    27       24       27      22
 9 Begin Again     NA            4      NA    NA     6        1       13       1
10 Better Than…     9           14       6    12    11       14       17       5
# ℹ 84 more rows
# ℹ 3 more variables: surprise <int>, trust <int>, sentiment <int>
…
