Corpus Studies in Music - Week 8: Adding Features
…
This is how we’d get the transitions from each pitch:

for(i in 1:100){
n <- grab_pitch_pairs(playlist[i,]) 
}

# A tibble: 144 × 2
     value combined
     <dbl> <fct>   
 1 0.0170  A-A     
 2 0.00353 A#|Bb-A 
 3 0.00314 B-A     
 4 0.00837 C-A     
 5 0.00108 C#|Db-A 
 6 0.00301 D-A     
 7 0.00217 D#|Eb-A 
 8 0.00370 E-A     
 9 0.00323 F-A     
10 0.00174 F#|Gb-A 
# ℹ 134 more rows
# A tibble: 144 × 2
     value combined
     <dbl> <fct>   
 1 0.0170  A-A     
 2 0.00353 A#|Bb-A 
 3 0.00314 B-A     
 4 0.00837 C-A     
 5 0.00108 C#|Db-A 
 6 0.00301 D-A     
 7 0.00217 D#|Eb-A 
 8 0.00370 E-A     
 9 0.00323 F-A     
10 0.00174 F#|Gb-A 
# ℹ 134 more rows
# A tibble: 144 × 2
     value combined
     <dbl> <fct>   
 1 0.0170  A-A     
 2 0.00353 A#|Bb-A 
 3 0.00314 B-A     
 4 0.00837 C-A     
 5 0.00108 C#|Db-A 
 6 0.00301 D-A     
 7 0.00217 D#|Eb-A 
 8 0.00370 E-A     
 9 0.00323 F-A     
10 0.00174 F#|Gb-A 
# ℹ 134 more rows
# A tibble: 144 × 2
     value combined
     <dbl> <fct>   
 1 0.0170  A-A     
 2 0.00353 A#|Bb-A 
 3 0.00314 B-A     
 4 0.00837 C-A     
 5 0.00108 C#|Db-A 
 6 0.00301 D-A     
 7 0.00217 D#|Eb-A 
 8 0.00370 E-A     
 9 0.00323 F-A     
10 0.00174 F#|Gb-A 
# ℹ 134 more rows
# A tibble: 144 × 2
     value combined
     <dbl> <fct>   
 1 0.0170  A-A     
 2 0.00353 A#|Bb-A 
 3 0.00314 B-A     
 4 0.00837 C-A     
 5 0.00108 C#|Db-A 
 6 0.00301 D-A     
 7 0.00217 D#|Eb-A 
 8 0.00370 E-A     
 9 0.00323 F-A     
10 0.00174 F#|Gb-A 
# ℹ 134 more rows
# A tibble: 144 × 2
     value combined
     <dbl> <fct>   
 1 0.0170  A-A     
 2 0.00353 A#|Bb-A 
 3 0.00314 B-A     
 4 0.00837 C-A     
 5 0.00108 C#|Db-A 
 6 0.00301 D-A     
 7 0.00217 D#|Eb-A 
 8 0.00370 E-A     
 9 0.00323 F-A     
10 0.00174 F#|Gb-A 
# ℹ 134 more rows
# A tibble: 144 × 2
     value combined
     <dbl> <fct>   
 1 0.0170  A-A     
 2 0.00353 A#|Bb-A 
 3 0.00314 B-A     
 4 0.00837 C-A     
 5 0.00108 C#|Db-A 
 6 0.00301 D-A     
 7 0.00217 D#|Eb-A 
 8 0.00370 E-A     
 9 0.00323 F-A     
10 0.00174 F#|Gb-A 
# ℹ 134 more rows
# A tibble: 144 × 2
     value combined
     <dbl> <fct>   
 1 0.0170  A-A     
 2 0.00353 A#|Bb-A 
 3 0.00314 B-A     
 4 0.00837 C-A     
 5 0.00108 C#|Db-A 
 6 0.00301 D-A     
 7 0.00217 D#|Eb-A 
 8 0.00370 E-A     
 9 0.00323 F-A     
10 0.00174 F#|Gb-A 
# ℹ 134 more rows
# A tibble: 144 × 2
     value combined
     <dbl> <fct>   
 1 0.0170  A-A     
 2 0.00353 A#|Bb-A 
 3 0.00314 B-A     
 4 0.00837 C-A     
 5 0.00108 C#|Db-A 
 6 0.00301 D-A     
 7 0.00217 D#|Eb-A 
 8 0.00370 E-A     
 9 0.00323 F-A     
10 0.00174 F#|Gb-A 
# ℹ 134 more rows
# A tibble: 144 × 2
     value combined
     <dbl> <fct>   
 1 0.0170  A-A     
 2 0.00353 A#|Bb-A 
 3 0.00314 B-A     
 4 0.00837 C-A     
 5 0.00108 C#|Db-A 
 6 0.00301 D-A     
 7 0.00217 D#|Eb-A 
 8 0.00370 E-A     
 9 0.00323 F-A     
10 0.00174 F#|Gb-A 
# ℹ 134 more rows
# A tibble: 144 × 2
     value combined
     <dbl> <fct>   
 1 0.0170  A-A     
 2 0.00353 A#|Bb-A 
 3 0.00314 B-A     
 4 0.00837 C-A     
 5 0.00108 C#|Db-A 
 6 0.00301 D-A     
 7 0.00217 D#|Eb-A 
 8 0.00370 E-A     
 9 0.00323 F-A     
10 0.00174 F#|Gb-A 
# ℹ 134 more rows
# A tibble: 144 × 2
     value combined
     <dbl> <fct>   
 1 0.0170  A-A     
 2 0.00353 A#|Bb-A 
 3 0.00314 B-A     
 4 0.00837 C-A     
 5 0.00108 C#|Db-A 
 6 0.00301 D-A     
 7 0.00217 D#|Eb-A 
 8 0.00370 E-A     
 9 0.00323 F-A     
10 0.00174 F#|Gb-A 
# ℹ 134 more rows
# A tibble: 144 × 2
     value combined
     <dbl> <fct>   
 1 0.0170  A-A     
 2 0.00353 A#|Bb-A 
 3 0.00314 B-A     
 4 0.00837 C-A     
 5 0.00108 C#|Db-A 
 6 0.00301 D-A     
 7 0.00217 D#|Eb-A 
 8 0.00370 E-A     
 9 0.00323 F-A     
10 0.00174 F#|Gb-A 
# ℹ 134 more rows
# A tibble: 144 × 2
     value combined
     <dbl> <fct>   
 1 0.0170  A-A     
 2 0.00353 A#|Bb-A 
 3 0.00314 B-A     
 4 0.00837 C-A     
 5 0.00108 C#|Db-A 
 6 0.00301 D-A     
 7 0.00217 D#|Eb-A 
 8 0.00370 E-A     
 9 0.00323 F-A     
10 0.00174 F#|Gb-A 
# ℹ 134 more rows
# A tibble: 144 × 2
     value combined
     <dbl> <fct>   
 1 0.0170  A-A     
 2 0.00353 A#|Bb-A 
 3 0.00314 B-A     
 4 0.00837 C-A     
 5 0.00108 C#|Db-A 
 6 0.00301 D-A     
 7 0.00217 D#|Eb-A 
 8 0.00370 E-A     
 9 0.00323 F-A     
10 0.00174 F#|Gb-A 
# ℹ 134 more rows
# A tibble: 144 × 2
     value combined
     <dbl> <fct>   
 1 0.0170  A-A     
 2 0.00353 A#|Bb-A 
 3 0.00314 B-A     
 4 0.00837 C-A     
 5 0.00108 C#|Db-A 
 6 0.00301 D-A     
 7 0.00217 D#|Eb-A 
 8 0.00370 E-A     
 9 0.00323 F-A     
10 0.00174 F#|Gb-A 
# ℹ 134 more rows
# A tibble: 144 × 2
     value combined
     <dbl> <fct>   
 1 0.0170  A-A     
 2 0.00353 A#|Bb-A 
 3 0.00314 B-A     
 4 0.00837 C-A     
 5 0.00108 C#|Db-A 
 6 0.00301 D-A     
 7 0.00217 D#|Eb-A 
 8 0.00370 E-A     
 9 0.00323 F-A     
10 0.00174 F#|Gb-A 
# ℹ 134 more rows
# A tibble: 144 × 2
     value combined
     <dbl> <fct>   
 1 0.0170  A-A     
 2 0.00353 A#|Bb-A 
 3 0.00314 B-A     
 4 0.00837 C-A     
 5 0.00108 C#|Db-A 
 6 0.00301 D-A     
 7 0.00217 D#|Eb-A 
 8 0.00370 E-A     
 9 0.00323 F-A     
10 0.00174 F#|Gb-A 
# ℹ 134 more rows
# A tibble: 144 × 2
     value combined
     <dbl> <fct>   
 1 0.0170  A-A     
 2 0.00353 A#|Bb-A 
 3 0.00314 B-A     
 4 0.00837 C-A     
 5 0.00108 C#|Db-A 
 6 0.00301 D-A     
 7 0.00217 D#|Eb-A 
 8 0.00370 E-A     
 9 0.00323 F-A     
10 0.00174 F#|Gb-A 
# ℹ 134 more rows
# A tibble: 144 × 2
     value combined
     <dbl> <fct>   
 1 0.0170  A-A     
 2 0.00353 A#|Bb-A 
 3 0.00314 B-A     
 4 0.00837 C-A     
 5 0.00108 C#|Db-A 
 6 0.00301 D-A     
 7 0.00217 D#|Eb-A 
 8 0.00370 E-A     
 9 0.00323 F-A     
10 0.00174 F#|Gb-A 
# ℹ 134 more rows
# A tibble: 144 × 2
     value combined
     <dbl> <fct>   
 1 0.0170  A-A     
 2 0.00353 A#|Bb-A 
 3 0.00314 B-A     
 4 0.00837 C-A     
 5 0.00108 C#|Db-A 
 6 0.00301 D-A     
 7 0.00217 D#|Eb-A 
 8 0.00370 E-A     
 9 0.00323 F-A     
10 0.00174 F#|Gb-A 
# ℹ 134 more rows
# A tibble: 144 × 2
     value combined
     <dbl> <fct>   
 1 0.0170  A-A     
 2 0.00353 A#|Bb-A 
 3 0.00314 B-A     
 4 0.00837 C-A     
 5 0.00108 C#|Db-A 
 6 0.00301 D-A     
 7 0.00217 D#|Eb-A 
 8 0.00370 E-A     
 9 0.00323 F-A     
10 0.00174 F#|Gb-A 
# ℹ 134 more rows
# A tibble: 144 × 2
     value combined
     <dbl> <fct>   
 1 0.0170  A-A     
 2 0.00353 A#|Bb-A 
 3 0.00314 B-A     
 4 0.00837 C-A     
 5 0.00108 C#|Db-A 
 6 0.00301 D-A     
 7 0.00217 D#|Eb-A 
 8 0.00370 E-A     
 9 0.00323 F-A     
10 0.00174 F#|Gb-A 
# ℹ 134 more rows
# A tibble: 144 × 2
     value combined
     <dbl> <fct>   
 1 0.0170  A-A     
 2 0.00353 A#|Bb-A 
 3 0.00314 B-A     
 4 0.00837 C-A     
 5 0.00108 C#|Db-A 
 6 0.00301 D-A     
 7 0.00217 D#|Eb-A 
 8 0.00370 E-A     
 9 0.00323 F-A     
10 0.00174 F#|Gb-A 
# ℹ 134 more rows
# A tibble: 144 × 2
     value combined
     <dbl> <fct>   
 1 0.0170  A-A     
 2 0.00353 A#|Bb-A 
 3 0.00314 B-A     
 4 0.00837 C-A     
 5 0.00108 C#|Db-A 
 6 0.00301 D-A     
 7 0.00217 D#|Eb-A 
 8 0.00370 E-A     
 9 0.00323 F-A     
10 0.00174 F#|Gb-A 
# ℹ 134 more rows
# A tibble: 144 × 2
     value combined
     <dbl> <fct>   
 1 0.0170  A-A     
 2 0.00353 A#|Bb-A 
 3 0.00314 B-A     
 4 0.00837 C-A     
 5 0.00108 C#|Db-A 
 6 0.00301 D-A     
 7 0.00217 D#|Eb-A 
 8 0.00370 E-A     
 9 0.00323 F-A     
10 0.00174 F#|Gb-A 
# ℹ 134 more rows
# A tibble: 144 × 2
     value combined
     <dbl> <fct>   
 1 0.0170  A-A     
 2 0.00353 A#|Bb-A 
 3 0.00314 B-A     
 4 0.00837 C-A     
 5 0.00108 C#|Db-A 
 6 0.00301 D-A     
 7 0.00217 D#|Eb-A 
 8 0.00370 E-A     
 9 0.00323 F-A     
10 0.00174 F#|Gb-A 
# ℹ 134 more rows
# A tibble: 144 × 2
     value combined
     <dbl> <fct>   
 1 0.0170  A-A     
 2 0.00353 A#|Bb-A 
 3 0.00314 B-A     
 4 0.00837 C-A     
 5 0.00108 C#|Db-A 
 6 0.00301 D-A     
 7 0.00217 D#|Eb-A 
 8 0.00370 E-A     
 9 0.00323 F-A     
10 0.00174 F#|Gb-A 
# ℹ 134 more rows
# A tibble: 144 × 2
     value combined
     <dbl> <fct>   
 1 0.0170  A-A     
 2 0.00353 A#|Bb-A 
 3 0.00314 B-A     
 4 0.00837 C-A     
 5 0.00108 C#|Db-A 
 6 0.00301 D-A     
 7 0.00217 D#|Eb-A 
 8 0.00370 E-A     
 9 0.00323 F-A     
10 0.00174 F#|Gb-A 
# ℹ 134 more rows
# A tibble: 144 × 2
     value combined
     <dbl> <fct>   
 1 0.0170  A-A     
 2 0.00353 A#|Bb-A 
 3 0.00314 B-A     
 4 0.00837 C-A     
 5 0.00108 C#|Db-A 
 6 0.00301 D-A     
 7 0.00217 D#|Eb-A 
 8 0.00370 E-A     
 9 0.00323 F-A     
10 0.00174 F#|Gb-A 
# ℹ 134 more rows
# A tibble: 144 × 2
     value combined
     <dbl> <fct>   
 1 0.0170  A-A     
 2 0.00353 A#|Bb-A 
 3 0.00314 B-A     
 4 0.00837 C-A     
 5 0.00108 C#|Db-A 
 6 0.00301 D-A     
 7 0.00217 D#|Eb-A 
 8 0.00370 E-A     
 9 0.00323 F-A     
10 0.00174 F#|Gb-A 
# ℹ 134 more rows
# A tibble: 144 × 2
     value combined
     <dbl> <fct>   
 1 0.0170  A-A     
 2 0.00353 A#|Bb-A 
 3 0.00314 B-A     
 4 0.00837 C-A     
 5 0.00108 C#|Db-A 
 6 0.00301 D-A     
 7 0.00217 D#|Eb-A 
 8 0.00370 E-A     
 9 0.00323 F-A     
10 0.00174 F#|Gb-A 
# ℹ 134 more rows
# A tibble: 144 × 2
     value combined
     <dbl> <fct>   
 1 0.0170  A-A     
 2 0.00353 A#|Bb-A 
 3 0.00314 B-A     
 4 0.00837 C-A     
 5 0.00108 C#|Db-A 
 6 0.00301 D-A     
 7 0.00217 D#|Eb-A 
 8 0.00370 E-A     
 9 0.00323 F-A     
10 0.00174 F#|Gb-A 
# ℹ 134 more rows
# A tibble: 144 × 2
     value combined
     <dbl> <fct>   
 1 0.0170  A-A     
 2 0.00353 A#|Bb-A 
 3 0.00314 B-A     
 4 0.00837 C-A     
 5 0.00108 C#|Db-A 
 6 0.00301 D-A     
 7 0.00217 D#|Eb-A 
 8 0.00370 E-A     
 9 0.00323 F-A     
10 0.00174 F#|Gb-A 
# ℹ 134 more rows
# A tibble: 144 × 2
     value combined
     <dbl> <fct>   
 1 0.0170  A-A     
 2 0.00353 A#|Bb-A 
 3 0.00314 B-A     
 4 0.00837 C-A     
 5 0.00108 C#|Db-A 
 6 0.00301 D-A     
 7 0.00217 D#|Eb-A 
 8 0.00370 E-A     
 9 0.00323 F-A     
10 0.00174 F#|Gb-A 
# ℹ 134 more rows
# A tibble: 144 × 2
     value combined
     <dbl> <fct>   
 1 0.0170  A-A     
 2 0.00353 A#|Bb-A 
 3 0.00314 B-A     
 4 0.00837 C-A     
 5 0.00108 C#|Db-A 
 6 0.00301 D-A     
 7 0.00217 D#|Eb-A 
 8 0.00370 E-A     
 9 0.00323 F-A     
10 0.00174 F#|Gb-A 
# ℹ 134 more rows
# A tibble: 144 × 2
     value combined
     <dbl> <fct>   
 1 0.0170  A-A     
 2 0.00353 A#|Bb-A 
 3 0.00314 B-A     
 4 0.00837 C-A     
 5 0.00108 C#|Db-A 
 6 0.00301 D-A     
 7 0.00217 D#|Eb-A 
 8 0.00370 E-A     
 9 0.00323 F-A     
10 0.00174 F#|Gb-A 
# ℹ 134 more rows
# A tibble: 144 × 2
     value combined
     <dbl> <fct>   
 1 0.0170  A-A     
 2 0.00353 A#|Bb-A 
 3 0.00314 B-A     
 4 0.00837 C-A     
 5 0.00108 C#|Db-A 
 6 0.00301 D-A     
 7 0.00217 D#|Eb-A 
 8 0.00370 E-A     
 9 0.00323 F-A     
10 0.00174 F#|Gb-A 
# ℹ 134 more rows
# A tibble: 144 × 2
     value combined
     <dbl> <fct>   
 1 0.0170  A-A     
 2 0.00353 A#|Bb-A 
 3 0.00314 B-A     
 4 0.00837 C-A     
 5 0.00108 C#|Db-A 
 6 0.00301 D-A     
 7 0.00217 D#|Eb-A 
 8 0.00370 E-A     
 9 0.00323 F-A     
10 0.00174 F#|Gb-A 
# ℹ 134 more rows
# A tibble: 144 × 2
     value combined
     <dbl> <fct>   
 1 0.0170  A-A     
 2 0.00353 A#|Bb-A 
 3 0.00314 B-A     
 4 0.00837 C-A     
 5 0.00108 C#|Db-A 
 6 0.00301 D-A     
 7 0.00217 D#|Eb-A 
 8 0.00370 E-A     
 9 0.00323 F-A     
10 0.00174 F#|Gb-A 
# ℹ 134 more rows
# A tibble: 144 × 2
     value combined
     <dbl> <fct>   
 1 0.0170  A-A     
 2 0.00353 A#|Bb-A 
 3 0.00314 B-A     
 4 0.00837 C-A     
 5 0.00108 C#|Db-A 
 6 0.00301 D-A     
 7 0.00217 D#|Eb-A 
 8 0.00370 E-A     
 9 0.00323 F-A     
10 0.00174 F#|Gb-A 
# ℹ 134 more rows
# A tibble: 144 × 2
     value combined
     <dbl> <fct>   
 1 0.0170  A-A     
 2 0.00353 A#|Bb-A 
 3 0.00314 B-A     
 4 0.00837 C-A     
 5 0.00108 C#|Db-A 
 6 0.00301 D-A     
 7 0.00217 D#|Eb-A 
 8 0.00370 E-A     
 9 0.00323 F-A     
10 0.00174 F#|Gb-A 
# ℹ 134 more rows
# A tibble: 144 × 2
     value combined
     <dbl> <fct>   
 1 0.0170  A-A     
 2 0.00353 A#|Bb-A 
 3 0.00314 B-A     
 4 0.00837 C-A     
 5 0.00108 C#|Db-A 
 6 0.00301 D-A     
 7 0.00217 D#|Eb-A 
 8 0.00370 E-A     
 9 0.00323 F-A     
10 0.00174 F#|Gb-A 
# ℹ 134 more rows
# A tibble: 144 × 2
     value combined
     <dbl> <fct>   
 1 0.0170  A-A     
 2 0.00353 A#|Bb-A 
 3 0.00314 B-A     
 4 0.00837 C-A     
 5 0.00108 C#|Db-A 
 6 0.00301 D-A     
 7 0.00217 D#|Eb-A 
 8 0.00370 E-A     
 9 0.00323 F-A     
10 0.00174 F#|Gb-A 
# ℹ 134 more rows
# A tibble: 144 × 2
     value combined
     <dbl> <fct>   
 1 0.0170  A-A     
 2 0.00353 A#|Bb-A 
 3 0.00314 B-A     
 4 0.00837 C-A     
 5 0.00108 C#|Db-A 
 6 0.00301 D-A     
 7 0.00217 D#|Eb-A 
 8 0.00370 E-A     
 9 0.00323 F-A     
10 0.00174 F#|Gb-A 
# ℹ 134 more rows
# A tibble: 144 × 2
     value combined
     <dbl> <fct>   
 1 0.0170  A-A     
 2 0.00353 A#|Bb-A 
 3 0.00314 B-A     
 4 0.00837 C-A     
 5 0.00108 C#|Db-A 
 6 0.00301 D-A     
 7 0.00217 D#|Eb-A 
 8 0.00370 E-A     
 9 0.00323 F-A     
10 0.00174 F#|Gb-A 
# ℹ 134 more rows
# A tibble: 144 × 2
     value combined
     <dbl> <fct>   
 1 0.0170  A-A     
 2 0.00353 A#|Bb-A 
 3 0.00314 B-A     
 4 0.00837 C-A     
 5 0.00108 C#|Db-A 
 6 0.00301 D-A     
 7 0.00217 D#|Eb-A 
 8 0.00370 E-A     
 9 0.00323 F-A     
10 0.00174 F#|Gb-A 
# ℹ 134 more rows
# A tibble: 144 × 2
     value combined
     <dbl> <fct>   
 1 0.0170  A-A     
 2 0.00353 A#|Bb-A 
 3 0.00314 B-A     
 4 0.00837 C-A     
 5 0.00108 C#|Db-A 
 6 0.00301 D-A     
 7 0.00217 D#|Eb-A 
 8 0.00370 E-A     
 9 0.00323 F-A     
10 0.00174 F#|Gb-A 
# ℹ 134 more rows
# A tibble: 144 × 2
     value combined
     <dbl> <fct>   
 1 0.0170  A-A     
 2 0.00353 A#|Bb-A 
 3 0.00314 B-A     
 4 0.00837 C-A     
 5 0.00108 C#|Db-A 
 6 0.00301 D-A     
 7 0.00217 D#|Eb-A 
 8 0.00370 E-A     
 9 0.00323 F-A     
10 0.00174 F#|Gb-A 
# ℹ 134 more rows
# A tibble: 144 × 2
     value combined
     <dbl> <fct>   
 1 0.0170  A-A     
 2 0.00353 A#|Bb-A 
 3 0.00314 B-A     
 4 0.00837 C-A     
 5 0.00108 C#|Db-A 
 6 0.00301 D-A     
 7 0.00217 D#|Eb-A 
 8 0.00370 E-A     
 9 0.00323 F-A     
10 0.00174 F#|Gb-A 
# ℹ 134 more rows
# A tibble: 144 × 2
     value combined
     <dbl> <fct>   
 1 0.0170  A-A     
 2 0.00353 A#|Bb-A 
 3 0.00314 B-A     
 4 0.00837 C-A     
 5 0.00108 C#|Db-A 
 6 0.00301 D-A     
 7 0.00217 D#|Eb-A 
 8 0.00370 E-A     
 9 0.00323 F-A     
10 0.00174 F#|Gb-A 
# ℹ 134 more rows
# A tibble: 144 × 2
     value combined
     <dbl> <fct>   
 1 0.0170  A-A     
 2 0.00353 A#|Bb-A 
 3 0.00314 B-A     
 4 0.00837 C-A     
 5 0.00108 C#|Db-A 
 6 0.00301 D-A     
 7 0.00217 D#|Eb-A 
 8 0.00370 E-A     
 9 0.00323 F-A     
10 0.00174 F#|Gb-A 
# ℹ 134 more rows
# A tibble: 144 × 2
     value combined
     <dbl> <fct>   
 1 0.0170  A-A     
 2 0.00353 A#|Bb-A 
 3 0.00314 B-A     
 4 0.00837 C-A     
 5 0.00108 C#|Db-A 
 6 0.00301 D-A     
 7 0.00217 D#|Eb-A 
 8 0.00370 E-A     
 9 0.00323 F-A     
10 0.00174 F#|Gb-A 
# ℹ 134 more rows
# A tibble: 144 × 2
     value combined
     <dbl> <fct>   
 1 0.0170  A-A     
 2 0.00353 A#|Bb-A 
 3 0.00314 B-A     
 4 0.00837 C-A     
 5 0.00108 C#|Db-A 
 6 0.00301 D-A     
 7 0.00217 D#|Eb-A 
 8 0.00370 E-A     
 9 0.00323 F-A     
10 0.00174 F#|Gb-A 
# ℹ 134 more rows
# A tibble: 144 × 2
     value combined
     <dbl> <fct>   
 1 0.0170  A-A     
 2 0.00353 A#|Bb-A 
 3 0.00314 B-A     
 4 0.00837 C-A     
 5 0.00108 C#|Db-A 
 6 0.00301 D-A     
 7 0.00217 D#|Eb-A 
 8 0.00370 E-A     
 9 0.00323 F-A     
10 0.00174 F#|Gb-A 
# ℹ 134 more rows
# A tibble: 144 × 2
     value combined
     <dbl> <fct>   
 1 0.0170  A-A     
 2 0.00353 A#|Bb-A 
 3 0.00314 B-A     
 4 0.00837 C-A     
 5 0.00108 C#|Db-A 
 6 0.00301 D-A     
 7 0.00217 D#|Eb-A 
 8 0.00370 E-A     
 9 0.00323 F-A     
10 0.00174 F#|Gb-A 
# ℹ 134 more rows
# A tibble: 144 × 2
     value combined
     <dbl> <fct>   
 1 0.0170  A-A     
 2 0.00353 A#|Bb-A 
 3 0.00314 B-A     
 4 0.00837 C-A     
 5 0.00108 C#|Db-A 
 6 0.00301 D-A     
 7 0.00217 D#|Eb-A 
 8 0.00370 E-A     
 9 0.00323 F-A     
10 0.00174 F#|Gb-A 
# ℹ 134 more rows
# A tibble: 144 × 2
     value combined
     <dbl> <fct>   
 1 0.0170  A-A     
 2 0.00353 A#|Bb-A 
 3 0.00314 B-A     
 4 0.00837 C-A     
 5 0.00108 C#|Db-A 
 6 0.00301 D-A     
 7 0.00217 D#|Eb-A 
 8 0.00370 E-A     
 9 0.00323 F-A     
10 0.00174 F#|Gb-A 
# ℹ 134 more rows
# A tibble: 144 × 2
     value combined
     <dbl> <fct>   
 1 0.0170  A-A     
 2 0.00353 A#|Bb-A 
 3 0.00314 B-A     
 4 0.00837 C-A     
 5 0.00108 C#|Db-A 
 6 0.00301 D-A     
 7 0.00217 D#|Eb-A 
 8 0.00370 E-A     
 9 0.00323 F-A     
10 0.00174 F#|Gb-A 
# ℹ 134 more rows
# A tibble: 144 × 2
     value combined
     <dbl> <fct>   
 1 0.0170  A-A     
 2 0.00353 A#|Bb-A 
 3 0.00314 B-A     
 4 0.00837 C-A     
 5 0.00108 C#|Db-A 
 6 0.00301 D-A     
 7 0.00217 D#|Eb-A 
 8 0.00370 E-A     
 9 0.00323 F-A     
10 0.00174 F#|Gb-A 
# ℹ 134 more rows
# A tibble: 144 × 2
     value combined
     <dbl> <fct>   
 1 0.0170  A-A     
 2 0.00353 A#|Bb-A 
 3 0.00314 B-A     
 4 0.00837 C-A     
 5 0.00108 C#|Db-A 
 6 0.00301 D-A     
 7 0.00217 D#|Eb-A 
 8 0.00370 E-A     
 9 0.00323 F-A     
10 0.00174 F#|Gb-A 
# ℹ 134 more rows
# A tibble: 144 × 2
     value combined
     <dbl> <fct>   
 1 0.0170  A-A     
 2 0.00353 A#|Bb-A 
 3 0.00314 B-A     
 4 0.00837 C-A     
 5 0.00108 C#|Db-A 
 6 0.00301 D-A     
 7 0.00217 D#|Eb-A 
 8 0.00370 E-A     
 9 0.00323 F-A     
10 0.00174 F#|Gb-A 
# ℹ 134 more rows
# A tibble: 144 × 2
     value combined
     <dbl> <fct>   
 1 0.0170  A-A     
 2 0.00353 A#|Bb-A 
 3 0.00314 B-A     
 4 0.00837 C-A     
 5 0.00108 C#|Db-A 
 6 0.00301 D-A     
 7 0.00217 D#|Eb-A 
 8 0.00370 E-A     
 9 0.00323 F-A     
10 0.00174 F#|Gb-A 
# ℹ 134 more rows
# A tibble: 144 × 2
     value combined
     <dbl> <fct>   
 1 0.0170  A-A     
 2 0.00353 A#|Bb-A 
 3 0.00314 B-A     
 4 0.00837 C-A     
 5 0.00108 C#|Db-A 
 6 0.00301 D-A     
 7 0.00217 D#|Eb-A 
 8 0.00370 E-A     
 9 0.00323 F-A     
10 0.00174 F#|Gb-A 
# ℹ 134 more rows
# A tibble: 144 × 2
     value combined
     <dbl> <fct>   
 1 0.0170  A-A     
 2 0.00353 A#|Bb-A 
 3 0.00314 B-A     
 4 0.00837 C-A     
 5 0.00108 C#|Db-A 
 6 0.00301 D-A     
 7 0.00217 D#|Eb-A 
 8 0.00370 E-A     
 9 0.00323 F-A     
10 0.00174 F#|Gb-A 
# ℹ 134 more rows
# A tibble: 144 × 2
     value combined
     <dbl> <fct>   
 1 0.0170  A-A     
 2 0.00353 A#|Bb-A 
 3 0.00314 B-A     
 4 0.00837 C-A     
 5 0.00108 C#|Db-A 
 6 0.00301 D-A     
 7 0.00217 D#|Eb-A 
 8 0.00370 E-A     
 9 0.00323 F-A     
10 0.00174 F#|Gb-A 
# ℹ 134 more rows
# A tibble: 144 × 2
     value combined
     <dbl> <fct>   
 1 0.0170  A-A     
 2 0.00353 A#|Bb-A 
 3 0.00314 B-A     
 4 0.00837 C-A     
 5 0.00108 C#|Db-A 
 6 0.00301 D-A     
 7 0.00217 D#|Eb-A 
 8 0.00370 E-A     
 9 0.00323 F-A     
10 0.00174 F#|Gb-A 
# ℹ 134 more rows
# A tibble: 144 × 2
     value combined
     <dbl> <fct>   
 1 0.0170  A-A     
 2 0.00353 A#|Bb-A 
 3 0.00314 B-A     
 4 0.00837 C-A     
 5 0.00108 C#|Db-A 
 6 0.00301 D-A     
 7 0.00217 D#|Eb-A 
 8 0.00370 E-A     
 9 0.00323 F-A     
10 0.00174 F#|Gb-A 
# ℹ 134 more rows
# A tibble: 144 × 2
     value combined
     <dbl> <fct>   
 1 0.0170  A-A     
 2 0.00353 A#|Bb-A 
 3 0.00314 B-A     
 4 0.00837 C-A     
 5 0.00108 C#|Db-A 
 6 0.00301 D-A     
 7 0.00217 D#|Eb-A 
 8 0.00370 E-A     
 9 0.00323 F-A     
10 0.00174 F#|Gb-A 
# ℹ 134 more rows
# A tibble: 144 × 2
     value combined
     <dbl> <fct>   
 1 0.0170  A-A     
 2 0.00353 A#|Bb-A 
 3 0.00314 B-A     
 4 0.00837 C-A     
 5 0.00108 C#|Db-A 
 6 0.00301 D-A     
 7 0.00217 D#|Eb-A 
 8 0.00370 E-A     
 9 0.00323 F-A     
10 0.00174 F#|Gb-A 
# ℹ 134 more rows
# A tibble: 144 × 2
     value combined
     <dbl> <fct>   
 1 0.0170  A-A     
 2 0.00353 A#|Bb-A 
 3 0.00314 B-A     
 4 0.00837 C-A     
 5 0.00108 C#|Db-A 
 6 0.00301 D-A     
 7 0.00217 D#|Eb-A 
 8 0.00370 E-A     
 9 0.00323 F-A     
10 0.00174 F#|Gb-A 
# ℹ 134 more rows
…
